993
36266.6667 62550.0000
34600.0000 58633.3333
51650.0000 72300.0000
37800.0000 67683.3333
35428.0556 60174.1667
34583.3333 68550.0000
27383.3333 54766.6667
34533.3333 63166.6667
23766.6667 64683.3333
32383.3333 59666.6667
32383.3333 59666.6667
25416.6667 65533.3333
31383.3333 64183.3333
37916.6667 62933.3333
37183.3333 60166.6667
35600.0000 60900.0000
33783.3333 60600.0000
35454.1667 60891.3889
31650.0000 68400.0000
28833.3333 58833.3333
26283.3333 64483.3333
34642.5000 58618.0556
34150.0000 60800.0000
33800.0000 61583.3333
32666.6667 68616.6667
27033.3333 54650.0000
32266.6667 68416.6667
35550.0000 58883.3333
25083.3333 65483.3333
28550.0000 67066.6667
23550.0000 62600.0000
36550.0000 62583.3333
38750.0000 60766.6667
27716.6667 61366.6667
28316.6667 64966.6667
31550.0000 68733.3333
37216.6667 61933.3333
37216.6667 61933.3333
35550.0000 58883.3333
31566.6667 61900.0000
31566.6667 61900.0000
34374.7222 58895.2778
33016.6667 60883.3333
34883.3333 61000.0000
34092.2222 59035.0000
26216.6667 65400.0000
24250.0000 65133.3333
35050.0000 59050.0000
33483.3333 69000.0000
26066.6667 60550.0000
27783.3333 65333.3333
26550.0000 59350.0000
38900.0000 70066.6667
40700.0000 63466.6667
27916.6667 64250.0000
33800.0000 66433.3333
52166.6667 68566.6667
40183.3333 70233.3333
37000.0000 63150.0000
23633.3333 64466.6667
28700.0000 56816.6667
31383.3333 58116.6667
28883.3333 58033.3333
38150.0000 70716.6667
27366.6667 65516.6667
27800.0000 62966.6667
23433.3333 64166.6667
38133.3333 57983.3333
22200.0000 66016.6667
29100.0000 58333.3333
31450.0000 64366.6667
31450.0000 64366.6667
28416.6667 65633.3333
30366.6667 67666.6667
30933.3333 59466.6667
31466.6667 58266.6667
36183.3333 60066.6667
27500.0000 55166.6667
27483.3333 55133.3333
26983.3333 54483.3333
28983.3333 65483.3333
26816.6667 65316.6667
31166.6667 63583.3333
27800.0000 62966.6667
32850.0000 60800.0000
22100.0000 65466.6667
22133.3333 65466.6667
29016.6667 58900.0000
32133.3333 58266.6667
28916.6667 58933.3333
25600.0000 64950.0000
29016.6667 58900.0000
26416.6667 58550.0000
26466.6667 65833.3333
27983.3333 63950.0000
31083.3333 58383.3333
22433.3333 63800.0000
22933.3333 65300.0000
29466.6667 56816.6667
27650.0000 65650.0000
27883.3333 64250.0000
27466.6667 65050.0000
24116.6667 65383.3333
27383.3333 57700.0000
22383.3333 63800.0000
27366.6667 65216.6667
27183.3333 65616.6667
51533.3333 72300.0000
51533.3333 72300.0000
32116.6667 64750.0000
32116.6667 64750.0000
32050.0000 65050.0000
36250.0000 64233.3333
31950.0000 61400.0000
34700.0000 58316.6667
33783.3333 61216.6667
33166.6667 62750.0000
27300.0000 62600.0000
34933.3333 64316.6667
33883.3333 64700.0000
34916.6667 60516.6667
25966.6667 54583.3333
34933.3333 64316.6667
33583.3333 59816.6667
31650.0000 60683.3333
23416.6667 62466.6667
28050.0000 56033.3333
37450.0000 60666.6667
34883.3333 62616.6667
23900.0000 65450.0000
34616.6667 58566.6667
34533.3333 58466.6667
22583.3333 65200.0000
22116.6667 65133.3333
37666.6667 57650.0000
34233.3333 62833.3333
27783.3333 64150.0000
33016.6667 68883.3333
33633.3333 69150.0000
38750.0000 68183.3333
36050.0000 67383.3333
45400.0000 67133.3333
22116.6667 65133.3333
24900.0000 65683.3333
34450.0000 58550.0000
30750.0000 61333.3333
25066.6667 64966.6667
26483.3333 65366.6667
28766.6667 68166.6667
27383.3333 64866.6667
25700.0000 63700.0000
25716.6667 63700.0000
25683.3333 63666.6667
23666.6667 64466.6667
33983.3333 60233.3333
37450.0000 70766.6667
31183.3333 61833.3333
27783.3333 64150.0000
35833.3333 59033.3333
34583.3333 68550.0000
31316.6667 58033.3333
22533.3333 62266.6667
34550.0000 58533.3333
32116.6667 64750.0000
34700.0000 58316.6667
31350.0000 65100.0000
27583.3333 66250.0000
27100.0000 66816.6667
31266.6667 62700.0000
31266.6667 63066.6667
34333.3333 64916.6667
34566.6667 58483.3333
31650.0000 60366.6667
29400.0000 62783.3333
29300.0000 68200.0000
33366.6667 69133.3333
30400.0000 64116.6667
32716.6667 68583.3333
30216.6667 61883.3333
40666.6667 71400.0000
27483.3333 55150.0000
28166.6667 64100.0000
25850.0000 63883.3333
34666.6667 58450.0000
28100.0000 64133.3333
31750.0000 64466.6667
38766.6667 62250.0000
35616.6667 62866.6667
33550.0000 69166.6667
35283.3333 63366.6667
35283.3333 63366.6667
34700.0000 58383.3333
34116.6667 64733.3333
27400.0000 65683.3333
24966.6667 65400.0000
30550.0000 60750.0000
35983.3333 60933.3333
33250.0000 68150.0000
31733.3333 68316.6667
31150.0000 63383.3333
30950.0000 66216.6667
36783.3333 59050.0000
31450.0000 64450.0000
32433.3333 58633.3333
28300.0000 64200.0000
32166.6667 58933.3333
32450.0000 58433.3333
34066.6667 60400.0000
32200.0000 58216.6667
31350.0000 61616.6667
31500.0000 68333.3333
34650.0000 58750.0000
28100.0000 55883.3333
34766.6667 58200.0000
31650.0000 62866.6667
33016.6667 60616.6667
33766.6667 69033.3333
30733.3333 63400.0000
30633.3333 67450.0000
28800.0000 63416.6667
34450.0000 62650.0000
27783.3333 55233.3333
32183.3333 64483.3333
34838.8889 58955.0000
34283.3333 63250.0000
30416.6667 63483.3333
30783.3333 57916.6667
34416.6667 58866.6667
27933.3333 64133.3333
27566.6667 64950.0000
38716.6667 62450.0000
34700.0000 58466.6667
33716.6667 65383.3333
31450.0000 64166.6667
37850.0000 57983.3333
26900.0000 64933.3333
34650.0000 58700.0000
33416.6667 61500.0000
39100.0000 67066.6667
33200.0000 63866.6667
34700.0000 58466.6667
34616.6667 58533.3333
25066.6667 58550.0000
32183.3333 60200.0000
27233.3333 65550.0000
30200.0000 64483.3333
33033.3333 66300.0000
27733.3333 65016.6667
34583.3333 58500.0000
38716.6667 62316.6667
34583.3333 58533.3333
32533.3333 65650.0000
24333.3333 67016.6667
31650.0000 69466.6667
31483.3333 68566.6667
32866.6667 60733.3333
33733.3333 58666.6667
26783.3333 63433.3333
26483.3333 64966.6667
34583.3333 58483.3333
38683.3333 62383.3333
29516.6667 63700.0000
28466.6667 59366.6667
31183.3333 64316.6667
34918.6111 58407.2222
32516.6667 58933.3333
32900.0000 68783.3333
35666.6667 58433.3333
32900.0000 68783.3333
32433.3333 63250.0000
31072.2222 69503.6111
28250.0000 64050.0000
26633.3333 64833.3333
26550.0000 63666.6667
26850.0000 65383.3333
26550.0000 63666.6667
27083.3333 55450.0000
33316.6667 61066.6667
33916.6667 60933.3333
36900.0000 60150.0000
35066.6667 59650.0000
34716.6667 64633.3333
35066.6667 58150.0000
36066.6667 63883.3333
28616.6667 61650.0000
33666.6667 65466.6667
30152.2222 68660.2778
26466.6667 64200.0000
31974.1667 68423.0556
28666.6667 66566.6667
25816.6667 63816.6667
27266.6667 62950.0000
28350.0000 64783.3333
28116.6667 63283.3333
41350.0000 71516.6667
34616.6667 58566.6667
34783.3333 58350.0000
32916.6667 68866.6667
31650.0000 59900.0000
34900.0000 60366.6667
32416.6667 63250.0000
37450.0000 63233.3333
32800.0000 60733.3333
32400.0000 58750.0000
35466.6667 69583.3333
38850.0000 62083.3333
34700.0000 58500.0000
36600.0000 61366.6667
34600.0000 58516.6667
34650.0000 58583.3333
34633.3333 58500.0000
26816.6667 65250.0000
34683.3333 58466.6667
34616.6667 58533.3333
31833.3333 64500.0000
32616.6667 64983.3333
39883.3333 62583.3333
27466.6667 55866.6667
34600.0000 58516.6667
33116.6667 58766.6667
34583.3333 58566.6667
34116.6667 59433.3333
34633.3333 58700.0000
34616.6667 58683.3333
31933.3333 65066.6667
36983.3333 60316.6667
33033.3333 59016.6667
32616.6667 64983.3333
28366.6667 64783.3333
33450.0000 67633.3333
27433.3333 55883.3333
34666.6667 58516.6667
40783.3333 71666.6667
31566.6667 68533.3333
31566.6667 68533.3333
33150.0000 68483.3333
33716.6667 61050.0000
27566.6667 64516.6667
34533.3333 58750.0000
38166.6667 63250.0000
34666.6667 58516.6667
31633.3333 68300.0000
31450.0000 64516.6667
34516.6667 58750.0000
31483.3333 64566.6667
34833.3333 64583.3333
34833.3333 58433.3333
27766.6667 63983.3333
32916.6667 68833.3333
27450.0000 65650.0000
31216.6667 59983.3333
38716.6667 62200.0000
30666.6667 64166.6667
27483.3333 55100.0000
28233.3333 59466.6667
31850.0000 59016.6667
27866.6667 64850.0000
31333.3333 64166.6667
33033.3333 60633.3333
27566.6667 64516.6667
31033.3333 64483.3333
34800.0000 58216.6667
37250.0000 56916.6667
33433.3333 60133.3333
32650.0000 66466.6667
34616.6667 58466.6667
30700.0000 64066.6667
29150.0000 62650.0000
31983.3333 64566.6667
27516.6667 65616.6667
38816.6667 62100.0000
35000.0000 57850.0000
32800.0000 60733.3333
31333.3333 64550.0000
34783.3333 58383.3333
33350.0000 61483.3333
36700.0000 63366.6667
35483.3333 60850.0000
36983.3333 60283.3333
30883.3333 63133.3333
23550.0000 65366.6667
27716.6667 63533.3333
27083.3333 65250.0000
30950.0000 58800.0000
34716.6667 60600.0000
32083.3333 65583.3333
32816.6667 70050.0000
33700.0000 61316.6667
34816.6667 58250.0000
31366.6667 64100.0000
38733.3333 62166.6667
34766.6667 58200.0000
26616.6667 58666.6667
26616.6667 58666.6667
29350.0000 56833.3333
28566.6667 64550.0000
34783.3333 58466.6667
32950.0000 61550.0000
34840.2778 58097.5000
32833.3333 62300.0000
32166.6667 58400.0000
39233.3333 68750.0000
37683.3333 59400.0000
28300.0000 65366.6667
32950.0000 68816.6667
34766.6667 58233.3333
32533.3333 65650.0000
34683.3333 58316.6667
31566.6667 68300.0000
31983.3333 58966.6667
32566.6667 65250.0000
31933.3333 65200.0000
28433.3333 65733.3333
27400.0000 55900.0000
32166.6667 64483.3333
33016.6667 60616.6667
34683.3333 58433.3333
34600.0000 58516.6667
30850.0000 64983.3333
31583.3333 63533.3333
32533.3333 65650.0000
33666.6667 59650.0000
34500.0000 58683.3333
29900.0000 63716.6667
31450.0000 63200.0000
30816.6667 63716.6667
31447.5000 68410.2778
31583.3333 63533.3333
30783.3333 57916.6667
34600.0000 58483.3333
34616.6667 58533.3333
38866.6667 62116.6667
31400.0000 64516.6667
32166.6667 64483.3333
32950.0000 65050.0000
31933.3333 65066.6667
33033.3333 66300.0000
32166.6667 64483.3333
31533.3333 63383.3333
25866.6667 57883.3333
33350.0000 61450.0000
31683.3333 65016.6667
28483.3333 65783.3333
34683.3333 58333.3333
34600.0000 58450.0000
25866.6667 64583.3333
31216.6667 69450.0000
28983.3333 59083.3333
31450.0000 63983.3333
33233.3333 60333.3333
31316.6667 62833.3333
31316.6667 62833.3333
33300.0000 62183.3333
35000.0000 59016.6667
31654.1667 68285.2778
31150.0000 64366.6667
31150.0000 64366.6667
36966.6667 60316.6667
27450.0000 65650.0000
36716.6667 56733.3333
31833.3333 58816.6667
31266.6667 66600.0000
33300.0000 62050.0000
31083.3333 64316.6667
34683.3333 58333.3333
29000.0000 68183.3333
37383.3333 62816.6667
32816.6667 60716.6667
31100.0000 66550.0000
26750.0000 65283.3333
31400.0000 64516.6667
29816.6667 63333.3333
34000.0000 61600.0000
34800.0000 58366.6667
37683.3333 59400.0000
31266.6667 64483.3333
29283.3333 67033.3333
27333.3333 62933.3333
34583.3333 58566.6667
27283.3333 60416.6667
31633.3333 64950.0000
31366.6667 64250.0000
27516.6667 65616.6667
33333.3333 69133.3333
34633.3333 58583.3333
34700.0000 58333.3333
34733.3333 58383.3333
34533.3333 58550.0000
34750.0000 58250.0000
34833.3333 67900.0000
38850.0000 62100.0000
28483.3333 63800.0000
32166.6667 63883.3333
32666.6667 62100.0000
38883.3333 61966.6667
29016.6667 59083.3333
34683.3333 58516.6667
31733.3333 64400.0000
32933.3333 60583.3333
27583.3333 60716.6667
28483.3333 59616.6667
33033.3333 60783.3333
33183.3333 60666.6667
34533.3333 58750.0000
34683.3333 58416.6667
31300.0000 64300.0000
30466.6667 64316.6667
34616.6667 58550.0000
33100.0000 64350.0000
30683.3333 64333.3333
27583.3333 65616.6667
37983.3333 63566.6667
34533.3333 58550.0000
29350.0000 64816.6667
24166.6667 65333.3333
31650.0000 68583.3333
28483.3333 65450.0000
29950.0000 67366.6667
27950.0000 62633.3333
35833.3333 59033.3333
31200.0000 61833.3333
35116.6667 61683.3333
35266.6667 57583.3333
54500.0000 67783.3333
40800.0000 63000.0000
30933.3333 60650.0000
33900.0000 64383.3333
36600.0000 62666.6667
36216.6667 65450.0000
23616.6667 63216.6667
34450.0000 58533.3333
32609.1667 60168.8889
27166.6667 64900.0000
29483.3333 67516.6667
27416.6667 59050.0000
36700.0000 59783.3333
34533.3333 58466.6667
34967.2222 58660.2778
32816.6667 60833.3333
40800.0000 63866.6667
40800.0000 63866.6667
37716.6667 62816.6667
54033.3333 67366.6667
33733.3333 63100.0000
31883.3333 60016.6667
35650.0000 63233.3333
22600.0000 63816.6667
35433.3333 63900.0000
23250.0000 62166.6667
34633.3333 58516.6667
35392.2222 57338.0556
24483.3333 65066.6667
32150.0000 58183.3333
35383.3333 57800.0000
30150.0000 60350.0000
29466.6667 60216.6667
38633.3333 62533.3333
33749.7222 61966.9444
27816.6667 61383.3333
36100.0000 59666.6667
34633.3333 58483.3333
26700.0000 58666.6667
37400.0000 59500.0000
23766.6667 64683.3333
51650.0000 72300.0000
37800.0000 67683.3333
35428.0556 60174.1667
34583.3333 68550.0000
27383.3333 54766.6667
32383.3333 59666.6667
25416.6667 65533.3333
34497.5000 61553.3333
36600.0000 62666.6667
34967.2222 58660.2778
38150.0000 60166.6667
38150.0000 60166.6667
33883.3333 64700.0000
36800.0000 70700.0000
43716.6667 71216.6667
34633.3333 58466.6667
34116.6667 66450.0000
27950.0000 65866.6667
24716.6667 65416.6667
35016.6667 64050.0000
33366.6667 60650.0000
34683.3333 58416.6667
34683.3333 58416.6667
36350.0000 61033.3333
31983.3333 60583.3333
31116.6667 64483.3333
23466.6667 64983.3333
37066.6667 65400.0000
23400.0000 65000.0000
31733.3333 67983.3333
45800.0000 67483.3333
37133.3333 56883.3333
27400.0000 65433.3333
35650.0000 63233.3333
34683.3333 58416.6667
35650.0000 60483.3333
40700.0000 66150.0000
34316.6667 59433.3333
32666.6667 65583.3333
27416.6667 63483.3333
29633.3333 57950.0000
44216.6667 66150.0000
44216.6667 66150.0000
26866.6667 64400.0000
26233.3333 65116.6667
26233.3333 65116.6667
37266.6667 64566.6667
32666.6667 69366.6667
32583.3333 69333.3333
30566.6667 67533.3333
34800.0000 66316.6667
54800.0000 68300.0000
25700.0000 63066.6667
22583.3333 66350.0000
23550.0000 64416.6667
26683.3333 64616.6667
36500.0000 63833.3333
27450.0000 56983.3333
35123.3333 58888.3333
32683.3333 58883.3333
36450.0000 61433.3333
33650.0000 61450.0000
33266.6667 60700.0000
23300.0000 65350.0000
28683.3333 66783.3333
36133.3333 61016.6667
31233.3333 64316.6667
32900.0000 60700.0000
35150.0000 65950.0000
29400.0000 62783.3333
28466.6667 62833.3333
37533.3333 64350.0000
30866.6667 61366.6667
30866.6667 61366.6667
31466.6667 68700.0000
31583.3333 66250.0000
28650.0000 57483.3333
33216.6667 68883.3333
28683.3333 66783.3333
36566.6667 58516.6667
36566.6667 58516.6667
27116.6667 64416.6667
33033.3333 63516.6667
31783.3333 58300.0000
27333.3333 56116.6667
34716.6667 59316.6667
34516.6667 59683.3333
28566.6667 67216.6667
27100.0000 64916.6667
28366.6667 64383.3333
27600.0000 63500.0000
23200.0000 66050.0000
23216.6667 66650.0000
28683.3333 63150.0000
28683.3333 63150.0000
34783.3333 58400.0000
33366.6667 69133.3333
33366.6667 69133.3333
33566.6667 69016.6667
26333.3333 65216.6667
26333.3333 65216.6667
31566.6667 60983.3333
22666.6667 64033.3333
24833.3333 61466.6667
25416.6667 65583.3333
24800.0000 65750.0000
23850.0000 65466.6667
30866.6667 67400.0000
30400.0000 64116.6667
32716.6667 68583.3333
30400.0000 66550.0000
30400.0000 66550.0000
30197.7778 69265.2778
30197.7778 69265.2778
48433.3333 71850.0000
30603.6111 68643.0556
22816.6667 62116.6667
28066.6667 66616.6667
28066.6667 66616.6667
26816.6667 65216.6667
22400.0000 65216.6667
30750.0000 65250.0000
34883.3333 58566.6667
34433.3333 59033.3333
36466.6667 62483.3333
40133.3333 71416.6667
34666.6667 61483.3333
34883.3333 58566.6667
31550.0000 68516.6667
31933.3333 62833.3333
31783.3333 62883.3333
31083.3333 62483.3333
35900.0000 63650.0000
34533.3333 61933.3333
37050.0000 70316.6667
37050.0000 70316.6667
39616.6667 68000.0000
43066.6667 71466.6667
23300.0000 63250.0000
34450.0000 60016.6667
28450.0000 65733.3333
32400.0000 64116.6667
28400.0000 62250.0000
28016.6667 64816.6667
27083.3333 64916.6667
23650.0000 62333.3333
32883.3333 68383.3333
26350.0000 58433.3333
38283.3333 62200.0000
23133.3333 64650.0000
23733.3333 65800.0000
27983.3333 61716.6667
27783.3333 61916.6667
26333.3333 58200.0000
36450.0000 62850.0000
37183.3333 62000.0000
29366.6667 62033.3333
25250.0000 58450.0000
24983.3333 58833.3333
22200.0000 65133.3333
49616.6667 71500.0000
26350.0000 60433.3333
26200.0000 58400.0000
47316.6667 67233.3333
28250.0000 64966.6667
26933.3333 61600.0000
33833.3333 69066.6667
33150.0000 68550.0000
32250.0000 59950.0000
32050.0000 68416.6667
32666.6667 68616.6667
25866.6667 65733.3333
22916.6667 65583.3333
37500.0000 70383.3333
27600.0000 63633.3333
48216.6667 67550.0000
28250.0000 64966.6667
28000.0000 55600.0000
32733.3333 59750.0000
38383.3333 60283.3333
30916.6667 65033.3333
35050.0000 66100.0000
35200.0000 62766.6667
35966.6667 62700.0000
35700.0000 64133.3333
43250.0000 65300.0000
27483.3333 65350.0000
36266.6667 62550.0000
35583.3333 63583.3333
33783.3333 66083.3333
32133.3333 65050.0000
38400.0000 68600.0000
33116.6667 66083.3333
39566.6667 66983.3333
31683.3333 65016.6667
31683.3333 65016.6667
31416.6667 63183.3333
26616.6667 65033.3333
26216.6667 65283.3333
32350.0000 67283.3333
24883.3333 64866.6667
24883.3333 64866.6667
37633.3333 70350.0000
31916.6667 61716.6667
31916.6667 61716.6667
39450.0000 65583.3333
40700.0000 71216.6667
32583.3333 61183.3333
28466.6667 64150.0000
29633.3333 64850.0000
31716.6667 66416.6667
30816.6667 63716.6667
29233.3333 61766.6667
33816.6667 64450.0000
33816.6667 64450.0000
30983.3333 65266.6667
31750.0000 66750.0000
35650.0000 66533.3333
34466.6667 58766.6667
32733.3333 61816.6667
24016.6667 64850.0000
34433.3333 59133.3333
32033.3333 66116.6667
28833.3333 56466.6667
26516.6667 66283.3333
26516.6667 66283.3333
26516.6667 66283.3333
31283.3333 65133.3333
28866.6667 58100.0000
31083.3333 62966.6667
31083.3333 62966.6667
32750.0000 66350.0000
27583.3333 65333.3333
28683.3333 63966.6667
38100.0000 62233.3333
22400.0000 63483.3333
25066.6667 65950.0000
29250.0000 62983.3333
28600.0000 62183.3333
36850.0000 63516.6667
36850.0000 63516.6667
34716.6667 59316.6667
34883.3333 57966.6667
28616.6667 63616.6667
26200.0000 65916.6667
27416.6667 63200.0000
25500.0000 63533.3333
54533.3333 67200.0000
31566.6667 64016.6667
22300.0000 64683.3333
24600.0000 67450.0000
34033.3333 60166.6667
30666.6667 69416.6667
23083.3333 66583.3333
30666.6667 69416.6667
26466.6667 53900.0000
31800.0000 59950.0000
22150.0000 63733.3333
28133.3333 62700.0000
27533.3333 65066.6667
22150.0000 63733.3333
29250.0000 60183.3333
36666.6667 64350.0000
36850.0000 63516.6667
35966.6667 62700.0000
34716.6667 59316.6667
28400.0000 63983.3333
28050.0000 63316.6667
28050.0000 63316.6667
27650.0000 64416.6667
26633.3333 65416.6667
29066.6667 65700.0000
25066.6667 65533.3333
26466.6667 65950.0000
32283.3333 63366.6667
28400.0000 63983.3333
23133.3333 65433.3333
22400.0000 66416.6667
27033.3333 62716.6667
28366.6667 65483.3333
28066.6667 67566.6667
31133.3333 63900.0000
26616.6667 64600.0000
35366.6667 62250.0000
35350.0000 62233.3333
22216.6667 66150.0000
32666.6667 60800.0000
26700.0000 65133.3333
26700.0000 65116.6667
28900.0000 58233.3333
32183.3333 65216.6667
32733.3333 65300.0000
29133.3333 67416.6667
23566.6667 65366.6667
32250.0000 64683.3333
34425.8333 58596.6667
23133.3333 65433.3333
26516.6667 65250.0000
32700.0000 63450.0000
22400.0000 66416.6667
29050.0000 68100.0000
33316.6667 60316.6667
31050.0000 64516.6667
36950.0000 63300.0000
31866.6667 60483.3333
32516.6667 69016.6667
28600.0000 66533.3333
27483.3333 64866.6667
24166.6667 65483.3333
27483.3333 64866.6667
34183.3333 61533.3333
34183.3333 61533.3333
39066.6667 62583.3333
40500.0000 66766.6667
23750.0000 62150.0000
23750.0000 62150.0000
25350.0000 58300.0000
40200.0000 64200.0000
36133.3333 64933.3333
36133.3333 64933.3333
36800.0000 60183.3333
24800.0000 60466.6667
34783.3333 58400.0000
42400.0000 66950.0000
31216.6667 66316.6667
34683.3333 58466.6667
47650.0000 66050.0000
36266.6667 65500.0000
29466.6667 65650.0000
35416.6667 62450.0000
35383.3333 62416.6667
31383.3333 63966.6667
28716.6667 65766.6667
46933.3333 67450.0000
32633.3333 64283.3333
37366.6667 59766.6667
43483.3333 70800.0000
27333.3333 67566.6667
34366.6667 59933.3333
24433.3333 65950.0000
30616.6667 66516.6667
31616.6667 65166.6667
26583.3333 64833.3333
28666.6667 59866.6667
22533.3333 63816.6667
34183.3333 62550.0000
28250.0000 56116.6667
37600.0000 70350.0000
27416.6667 64816.6667
28400.0000 65116.6667
28400.0000 65100.0000
31450.0000 68616.6667
30733.3333 65133.3333
34700.0000 58516.6667
51050.0000 71766.6667
26600.0000 65300.0000
29483.3333 56983.3333
32816.6667 64750.0000
36350.0000 60016.6667
36350.0000 60016.6667
31350.0000 64566.6667
31333.3333 64600.0000
37316.6667 59150.0000
32250.0000 63983.3333
48316.6667 70966.6667
48316.6667 70966.6667
33966.6667 60583.3333
27966.6667 68183.3333
29416.6667 67833.3333
29100.0000 68716.6667
28866.6667 67950.0000
22900.0000 65933.3333
29416.6667 67833.3333
28866.6667 67950.0000
28066.6667 68166.6667
31466.9444 69422.2222
31466.9444 69422.2222
27966.6667 68183.3333
27333.3333 68366.6667
38200.0000 58733.3333
30516.6667 66533.3333
30700.0000 66200.0000
29716.6667 66850.0000
45816.6667 67450.0000
33466.6667 66633.3333
45816.6667 67450.0000
32533.3333 58333.3333
32316.6667 66733.3333
32233.3333 65583.3333
29483.3333 63633.3333
32400.0000 65550.0000
27883.3333 57733.3333
28350.0000 64733.3333
26733.3333 64833.3333
25533.3333 65566.6667
31116.6667 63583.3333
29716.6667 66850.0000
29716.6667 66850.0000
27566.6667 66850.0000
31250.0000 65183.3333
42233.3333 68283.3333
32333.3333 64716.6667
31112.2222 68641.6667
31350.0000 64966.6667
32298.0556 59139.4444
31616.6667 66416.6667
29166.6667 58700.0000
27966.6667 65866.6667
26116.6667 65283.3333
22100.0000 65733.3333
26733.3333 65266.6667
26866.6667 65683.3333
26700.0000 65283.3333
26866.6667 65683.3333
26733.3333 65266.6667
30816.6667 61750.0000
30850.0000 61600.0000
27866.6667 57800.0000
30850.0000 61600.0000
22666.6667 65116.6667
27616.6667 55633.3333
28800.0000 58383.3333
34216.6667 60316.6667
28416.6667 59300.0000
27866.6667 57800.0000
24433.3333 65833.3333
28183.3333 63616.6667
27833.3333 65200.0000
27850.0000 64066.6667